[gd_resource type="SpatialMaterial" load_steps=3 format=2]

[sub_resource type="Image" id=1]
data = {
"data": PoolByteArray( 255, 255, 255, 255, 255, 255, 204, 255, 255, 255, 153, 255, 255, 255, 102, 255, 255, 255, 51, 255, 255, 255, 0, 255, 255, 204, 255, 255, 255, 204, 204, 255, 255, 204, 153, 255, 255, 204, 102, 255, 255, 204, 51, 255, 255, 204, 0, 255, 255, 153, 255, 255, 255, 153, 204, 255, 255, 153, 153, 255, 255, 153, 102, 255, 255, 153, 51, 255, 255, 153, 0, 255, 255, 102, 255, 255, 255, 102, 204, 255, 255, 102, 153, 255, 255, 102, 102, 255, 255, 102, 51, 255, 255, 102, 0, 255, 255, 51, 255, 255, 255, 51, 204, 255, 255, 51, 153, 255, 255, 51, 102, 255, 255, 51, 51, 255, 255, 51, 0, 255, 255, 0, 255, 255, 255, 0, 204, 255, 255, 0, 153, 255, 255, 0, 102, 255, 255, 0, 51, 255, 255, 0, 0, 255, 204, 255, 255, 255, 204, 255, 204, 255, 204, 255, 153, 255, 204, 255, 102, 255, 204, 255, 51, 255, 204, 255, 0, 255, 204, 204, 255, 255, 204, 204, 204, 255, 204, 204, 153, 255, 204, 204, 102, 255, 204, 204, 51, 255, 204, 204, 0, 255, 204, 153, 255, 255, 204, 153, 204, 255, 204, 153, 153, 255, 204, 153, 102, 255, 204, 153, 51, 255, 204, 153, 0, 255, 204, 102, 255, 255, 204, 102, 204, 255, 204, 102, 153, 255, 204, 102, 102, 255, 204, 102, 51, 255, 204, 102, 0, 255, 204, 51, 255, 255, 204, 51, 204, 255, 204, 51, 153, 255, 204, 51, 102, 255, 204, 51, 51, 255, 204, 51, 0, 255, 204, 0, 255, 255, 204, 0, 204, 255, 204, 0, 153, 255, 204, 0, 102, 255, 204, 0, 51, 255, 204, 0, 0, 255, 153, 255, 255, 255, 153, 255, 204, 255, 153, 255, 153, 255, 153, 255, 102, 255, 153, 255, 51, 255, 153, 255, 0, 255, 153, 204, 255, 255, 153, 204, 204, 255, 153, 204, 153, 255, 153, 204, 102, 255, 153, 204, 51, 255, 153, 204, 0, 255, 153, 153, 255, 255, 153, 153, 204, 255, 153, 153, 153, 255, 153, 153, 102, 255, 153, 153, 51, 255, 153, 153, 0, 255, 153, 102, 255, 255, 153, 102, 204, 255, 153, 102, 153, 255, 153, 102, 102, 255, 153, 102, 51, 255, 153, 102, 0, 255, 153, 51, 255, 255, 153, 51, 204, 255, 153, 51, 153, 255, 153, 51, 102, 255, 153, 51, 51, 255, 153, 51, 0, 255, 153, 0, 255, 255, 153, 0, 204, 255, 153, 0, 153, 255, 153, 0, 102, 255, 153, 0, 51, 255, 153, 0, 0, 255, 102, 255, 255, 255, 102, 255, 204, 255, 102, 255, 153, 255, 102, 255, 102, 255, 102, 255, 51, 255, 102, 255, 0, 255, 102, 204, 255, 255, 102, 204, 204, 255, 102, 204, 153, 255, 102, 204, 102, 255, 102, 204, 51, 255, 102, 204, 0, 255, 102, 153, 255, 255, 102, 153, 204, 255, 102, 153, 153, 255, 102, 153, 102, 255, 102, 153, 51, 255, 102, 153, 0, 255, 102, 102, 255, 255, 102, 102, 204, 255, 102, 102, 153, 255, 102, 102, 102, 255, 102, 102, 51, 255, 102, 102, 0, 255, 102, 51, 255, 255, 102, 51, 204, 255, 102, 51, 153, 255, 102, 51, 102, 255, 102, 51, 51, 255, 102, 51, 0, 255, 102, 0, 255, 255, 102, 0, 204, 255, 102, 0, 153, 255, 102, 0, 102, 255, 102, 0, 51, 255, 102, 0, 0, 255, 51, 255, 255, 255, 51, 255, 204, 255, 51, 255, 153, 255, 51, 255, 102, 255, 51, 255, 51, 255, 51, 255, 0, 255, 51, 204, 255, 255, 51, 204, 204, 255, 51, 204, 153, 255, 51, 204, 102, 255, 51, 204, 51, 255, 51, 204, 0, 255, 51, 153, 255, 255, 51, 153, 204, 255, 51, 153, 153, 255, 51, 153, 102, 255, 51, 153, 51, 255, 51, 153, 0, 255, 51, 102, 255, 255, 51, 102, 204, 255, 51, 102, 153, 255, 51, 102, 102, 255, 51, 102, 51, 255, 51, 102, 0, 255, 51, 51, 255, 255, 51, 51, 204, 255, 51, 51, 153, 255, 51, 51, 102, 255, 51, 51, 51, 255, 51, 51, 0, 255, 51, 0, 255, 255, 51, 0, 204, 255, 51, 0, 153, 255, 51, 0, 102, 255, 51, 0, 51, 255, 51, 0, 0, 255, 0, 255, 255, 255, 0, 255, 204, 255, 0, 255, 153, 255, 0, 255, 102, 255, 0, 255, 51, 255, 0, 255, 0, 255, 0, 204, 255, 255, 0, 204, 204, 255, 0, 204, 153, 255, 0, 204, 102, 255, 0, 204, 51, 255, 0, 204, 0, 255, 0, 153, 255, 255, 0, 153, 204, 255, 0, 153, 153, 255, 0, 153, 102, 255, 0, 153, 51, 255, 0, 153, 0, 255, 0, 102, 255, 255, 0, 102, 204, 255, 0, 102, 153, 255, 0, 102, 102, 255, 0, 102, 51, 255, 0, 102, 0, 255, 0, 51, 255, 255, 0, 51, 204, 255, 0, 51, 153, 255, 0, 51, 102, 255, 0, 51, 51, 255, 0, 51, 0, 255, 0, 0, 255, 255, 0, 0, 204, 255, 0, 0, 153, 255, 0, 0, 102, 255, 0, 0, 51, 255, 238, 0, 0, 255, 221, 0, 0, 255, 187, 0, 0, 255, 170, 0, 0, 255, 136, 0, 0, 255, 119, 0, 0, 255, 85, 0, 0, 255, 68, 0, 0, 255, 34, 0, 0, 255, 17, 0, 0, 255, 0, 238, 0, 255, 0, 221, 0, 255, 0, 187, 0, 255, 0, 170, 0, 255, 0, 136, 0, 255, 0, 119, 0, 255, 0, 85, 0, 255, 0, 68, 0, 255, 0, 34, 0, 255, 0, 17, 0, 255, 0, 0, 238, 255, 0, 0, 221, 255, 0, 0, 187, 255, 0, 0, 170, 255, 0, 0, 136, 255, 0, 0, 119, 255, 0, 0, 85, 255, 0, 0, 68, 255, 0, 0, 34, 255, 0, 0, 17, 255, 238, 238, 238, 255, 221, 221, 221, 255, 187, 187, 187, 255, 170, 170, 170, 255, 136, 136, 136, 255, 119, 119, 119, 255, 85, 85, 85, 255, 68, 68, 68, 255, 34, 34, 34, 255, 17, 17, 17, 255, 0, 0, 0, 0 ),
"format": "RGBA8",
"height": 1,
"mipmaps": false,
"width": 256
}

[sub_resource type="ImageTexture" id=2]
flags = 19
image = SubResource( 1 )
size = Vector2( 256, 1 )

[resource]
resource_name = "palette.009"
params_cull_mode = 2
albedo_texture = SubResource( 2 )
emission_enabled = true
emission = Color( 0, 0, 0, 1 )
emission_energy = 1.0
emission_operator = 0
emission_on_uv2 = false
