[gd_resource type="SpatialMaterial" load_steps=3 format=2]

[sub_resource type="Image" id=1]
data = {
"data": PoolByteArray( 255, 255, 255, 255, 220, 159, 180, 255, 225, 107, 140, 255, 142, 53, 74, 255, 248, 195, 205, 255, 244, 167, 185, 255, 100, 54, 60, 255, 245, 150, 170, 255, 181, 73, 91, 255, 232, 122, 144, 255, 208, 90, 110, 255, 219, 77, 109, 255, 254, 223, 225, 255, 158, 122, 122, 255, 208, 16, 76, 255, 159, 53, 58, 255, 203, 27, 69, 255, 238, 169, 169, 255, 191, 103, 102, 255, 134, 71, 63, 255, 177, 150, 147, 255, 235, 122, 119, 255, 149, 74, 69, 255, 169, 99, 96, 255, 203, 64, 66, 255, 171, 59, 58, 255, 215, 196, 187, 255, 144, 72, 64, 255, 115, 67, 56, 255, 199, 62, 58, 255, 85, 66, 54, 255, 153, 70, 57, 255, 241, 148, 131, 255, 181, 68, 52, 255, 185, 136, 125, 255, 241, 124, 103, 255, 136, 76, 58, 255, 232, 48, 21, 255, 215, 84, 85, 255, 181, 93, 76, 255, 133, 72, 54, 255, 163, 94, 71, 255, 204, 84, 58, 255, 114, 72, 50, 255, 247, 92, 47, 255, 106, 64, 40, 255, 154, 80, 52, 255, 196, 98, 67, 255, 175, 95, 60, 255, 251, 150, 110, 255, 114, 73, 56, 255, 180, 113, 87, 255, 219, 142, 113, 255, 240, 94, 28, 255, 237, 120, 74, 255, 202, 120, 83, 255, 179, 92, 55, 255, 86, 63, 46, 255, 227, 145, 110, 255, 143, 90, 60, 255, 240, 169, 134, 255, 160, 103, 75, 255, 193, 105, 60, 255, 251, 153, 102, 255, 148, 122, 109, 255, 163, 99, 54, 255, 231, 148, 96, 255, 125, 83, 44, 255, 199, 133, 80, 255, 152, 95, 42, 255, 225, 166, 121, 255, 133, 91, 50, 255, 252, 159, 77, 255, 255, 186, 132, 255, 233, 139, 42, 255, 233, 163, 104, 255, 177, 120, 68, 255, 150, 99, 46, 255, 202, 122, 44, 255, 67, 52, 27, 255, 236, 184, 138, 255, 120, 85, 43, 255, 176, 119, 54, 255, 150, 114, 73, 255, 226, 148, 59, 255, 199, 128, 45, 255, 155, 110, 35, 255, 110, 85, 47, 255, 235, 180, 113, 255, 215, 185, 142, 255, 130, 102, 58, 255, 182, 142, 85, 255, 188, 159, 119, 255, 135, 102, 51, 255, 193, 138, 38, 255, 255, 177, 27, 255, 209, 152, 38, 255, 221, 165, 45, 255, 201, 152, 51, 255, 249, 191, 69, 255, 220, 184, 121, 255, 186, 145, 50, 255, 232, 182, 71, 255, 247, 194, 66, 255, 125, 108, 70, 255, 218, 201, 166, 255, 250, 214, 137, 255, 217, 171, 66, 255, 246, 197, 85, 255, 255, 196, 8, 255, 239, 187, 36, 255, 202, 173, 95, 255, 141, 116, 42, 255, 180, 165, 130, 255, 135, 127, 108, 255, 137, 125, 85, 255, 116, 103, 62, 255, 162, 140, 55, 255, 108, 96, 36, 255, 134, 120, 53, 255, 98, 89, 44, 255, 233, 205, 76, 255, 247, 217, 76, 255, 251, 226, 81, 255, 217, 205, 144, 255, 173, 161, 66, 255, 221, 210, 59, 255, 165, 160, 81, 255, 190, 194, 63, 255, 108, 106, 45, 255, 147, 150, 80, 255, 131, 138, 45, 255, 177, 180, 121, 255, 97, 97, 56, 255, 75, 78, 42, 255, 91, 98, 46, 255, 77, 81, 57, 255, 137, 145, 107, 255, 144, 180, 75, 255, 145, 173, 112, 255, 181, 202, 160, 255, 100, 106, 88, 255, 123, 162, 63, 255, 134, 193, 102, 255, 74, 89, 61, 255, 66, 96, 45, 255, 81, 110, 65, 255, 145, 180, 147, 255, 128, 143, 124, 255, 27, 129, 62, 255, 93, 172, 129, 255, 54, 86, 60, 255, 34, 125, 81, 255, 168, 216, 185, 255, 106, 131, 114, 255, 45, 109, 75, 255, 70, 93, 76, 255, 36, 147, 110, 255, 134, 166, 151, 255, 0, 137, 108, 255, 9, 97, 72, 255, 32, 96, 79, 255, 15, 76, 58, 255, 79, 114, 108, 255, 0, 170, 144, 255, 105, 176, 172, 255, 38, 69, 61, 255, 102, 186, 183, 255, 38, 135, 133, 255, 64, 91, 85, 255, 48, 90, 86, 255, 120, 194, 196, 255, 55, 107, 109, 255, 165, 222, 228, 255, 119, 150, 154, 255, 102, 153, 161, 255, 129, 199, 212, 255, 51, 166, 184, 255, 12, 72, 66, 255, 13, 86, 97, 255, 0, 137, 167, 255, 51, 103, 116, 255, 37, 83, 89, 255, 30, 136, 168, 255, 86, 108, 115, 255, 87, 124, 138, 255, 88, 178, 220, 255, 43, 95, 117, 255, 58, 143, 183, 255, 46, 92, 110, 255, 0, 98, 132, 255, 125, 185, 222, 255, 81, 168, 221, 255, 46, 169, 223, 255, 11, 16, 19, 255, 15, 37, 64, 255, 8, 25, 45, 255, 0, 92, 175, 255, 11, 52, 110, 255, 123, 144, 210, 255, 110, 117, 164, 255, 38, 30, 71, 255, 17, 50, 133, 255, 78, 79, 151, 255, 33, 30, 85, 255, 139, 129, 195, 255, 112, 100, 154, 255, 155, 144, 194, 255, 138, 107, 190, 255, 106, 76, 156, 255, 143, 119, 181, 255, 83, 61, 91, 255, 178, 143, 206, 255, 152, 109, 178, 255, 119, 66, 141, 255, 60, 47, 65, 255, 74, 34, 93, 255, 102, 50, 124, 255, 89, 44, 99, 255, 111, 51, 129, 255, 87, 76, 87, 255, 180, 129, 187, 255, 63, 43, 54, 255, 87, 42, 63, 255, 94, 61, 80, 255, 114, 99, 110, 255, 98, 41, 84, 255, 109, 46, 91, 255, 193, 50, 142, 255, 168, 73, 122, 255, 86, 46, 55, 255, 224, 60, 138, 255, 96, 55, 62, 255, 252, 250, 242, 255, 255, 255, 251, 255, 189, 192, 186, 255, 145, 152, 159, 255, 120, 125, 123, 255, 112, 124, 116, 255, 101, 103, 101, 255, 83, 89, 83, 255, 79, 79, 72, 255, 82, 67, 61, 255, 55, 60, 56, 255, 58, 50, 38, 255, 238, 238, 238, 255, 221, 221, 221, 255, 187, 187, 187, 255, 170, 170, 170, 255, 136, 136, 136, 255, 119, 119, 119, 255, 85, 85, 85, 255, 68, 68, 68, 255, 34, 34, 34, 255, 17, 17, 17, 255, 0, 0, 0, 0 ),
"format": "RGBA8",
"height": 1,
"mipmaps": false,
"width": 256
}

[sub_resource type="ImageTexture" id=2]
flags = 19
image = SubResource( 1 )
size = Vector2( 256, 1 )

[resource]
resource_name = "palette.001"
params_cull_mode = 2
albedo_texture = SubResource( 2 )
emission_enabled = true
emission = Color( 0, 0, 0, 1 )
emission_energy = 1.0
emission_operator = 0
emission_on_uv2 = false
