[gd_scene load_steps=4 format=2]

[ext_resource path="res://components/hud/station/ressource.tscn" type="PackedScene" id=1]
[ext_resource path="res://assets/theme.tres" type="Theme" id=2]
[ext_resource path="res://components/hud/station/ressource_card.gd" type="Script" id=3]

[node name="RessourceCard" type="HBoxContainer"]
margin_left = 32.0
margin_top = 32.0
margin_right = 944.0
margin_bottom = 132.0
size_flags_horizontal = 3
size_flags_vertical = 8
theme = ExtResource( 2 )
custom_constants/separation = 128
script = ExtResource( 3 )

[node name="Ressource" parent="." instance=ExtResource( 1 )]
unique_name_in_owner = true
margin_right = 412.0
margin_bottom = 125.0
size_flags_horizontal = 3

[node name="HBoxContainer" type="HBoxContainer" parent="."]
margin_left = 540.0
margin_right = 1024.0
margin_bottom = 125.0
size_flags_horizontal = 0

[node name="MinusButton" type="Button" parent="HBoxContainer"]
unique_name_in_owner = true
margin_right = 100.0
margin_bottom = 125.0
rect_min_size = Vector2( 100, 100 )
mouse_default_cursor_shape = 2
text = "—"

[node name="ValueEdit" type="LineEdit" parent="HBoxContainer"]
unique_name_in_owner = true
margin_left = 116.0
margin_right = 368.0
margin_bottom = 125.0
size_flags_horizontal = 0
size_flags_vertical = 3
custom_colors/font_color = Color( 0.258824, 0.258824, 0.258824, 1 )
text = "100000"
align = 1
context_menu_enabled = false
middle_mouse_paste_enabled = false

[node name="PlusButton" type="Button" parent="HBoxContainer"]
unique_name_in_owner = true
margin_left = 384.0
margin_right = 484.0
margin_bottom = 125.0
rect_min_size = Vector2( 100, 100 )
mouse_default_cursor_shape = 2
text = "+"
