[gd_scene load_steps=3 format=2]

[ext_resource path="res://components/carriages/cargo2/cargo2_base.tscn" type="PackedScene" id=1]
[ext_resource path="res://components/carriages/cargo2/cargo2_carriage_green1.tscn" type="PackedScene" id=2]

[node name="cargo2_blue1" type="Spatial"]

[node name="Cargo2_base" parent="." instance=ExtResource( 1 )]

[node name="cargo2_carriage_green1" parent="." instance=ExtResource( 2 )]
