[gd_scene load_steps=2 format=2]

[ext_resource path="res://assets/carriages/passenger3/passenger3_carriage/passenger3_carriage.glb" type="PackedScene" id=1]

[node name="passenger3_carriage" instance=ExtResource( 1 )]
