[gd_scene load_steps=3 format=2]

[ext_resource path="res://components/trains/train3/wagon.tscn" type="PackedScene" id=1]
[ext_resource path="res://components/giraffes/driver_giraffe.tscn" type="PackedScene" id=2]

[node name="Train3" type="Spatial"]

[node name="train3" parent="." instance=ExtResource( 1 )]

[node name="driver_giraffe" parent="train3" instance=ExtResource( 2 )]
transform = Transform( 1.91069e-15, -4.37114e-08, -1, -1, -4.37114e-08, 0, -4.37114e-08, 1, -4.37114e-08, -0.2, 1.991, -0.401324 )
