[gd_resource type="SpatialMaterial" load_steps=3 format=2]

[sub_resource type="Image" id=3]
data = {
"data": PoolByteArray( 75, 75, 75, 255, 75, 75, 75, 255, 75, 75, 75, 255, 75, 75, 75, 255, 75, 75, 75, 255, 75, 75, 75, 255, 75, 75, 75, 255, 75, 75, 75, 255, 75, 75, 75, 255, 75, 75, 75, 255, 75, 75, 75, 255, 75, 75, 75, 255, 75, 75, 75, 255, 75, 75, 75, 255, 75, 75, 75, 255, 75, 75, 75, 255, 75, 75, 75, 255, 75, 75, 75, 255, 75, 75, 75, 255, 75, 75, 75, 255, 75, 75, 75, 255, 75, 75, 75, 255, 75, 75, 75, 255, 75, 75, 75, 255, 75, 75, 75, 255, 75, 75, 75, 255, 75, 75, 75, 255, 75, 75, 75, 255, 75, 75, 75, 255, 75, 75, 75, 255, 75, 75, 75, 255, 75, 75, 75, 255, 75, 75, 75, 255, 75, 75, 75, 255, 75, 75, 75, 255, 75, 75, 75, 255, 75, 75, 75, 255, 75, 75, 75, 255, 75, 75, 75, 255, 75, 75, 75, 255, 75, 75, 75, 255, 75, 75, 75, 255, 75, 75, 75, 255, 75, 75, 75, 255, 75, 75, 75, 255, 75, 75, 75, 255, 75, 75, 75, 255, 75, 75, 75, 255, 75, 75, 75, 255, 75, 75, 75, 255, 75, 75, 75, 255, 75, 75, 75, 255, 75, 75, 75, 255, 75, 75, 75, 255, 75, 75, 75, 255, 75, 75, 75, 255, 75, 75, 75, 255, 75, 75, 75, 255, 75, 75, 75, 255, 75, 75, 75, 255, 75, 75, 75, 255, 75, 75, 75, 255, 75, 75, 75, 255, 75, 75, 75, 255, 75, 75, 75, 255, 75, 75, 75, 255, 75, 75, 75, 255, 75, 75, 75, 255, 75, 75, 75, 255, 75, 75, 75, 255, 75, 75, 75, 255, 75, 75, 75, 255, 75, 75, 75, 255, 75, 75, 75, 255, 75, 75, 75, 255, 75, 75, 75, 255, 75, 75, 75, 255, 75, 75, 75, 255, 75, 75, 75, 255, 75, 75, 75, 255, 75, 75, 75, 255, 75, 75, 75, 255, 75, 75, 75, 255, 75, 75, 75, 255, 75, 75, 75, 255, 75, 75, 75, 255, 75, 75, 75, 255, 75, 75, 75, 255, 75, 75, 75, 255, 75, 75, 75, 255, 75, 75, 75, 255, 75, 75, 75, 255, 75, 75, 75, 255, 75, 75, 75, 255, 75, 75, 75, 255, 75, 75, 75, 255, 75, 75, 75, 255, 75, 75, 75, 255, 75, 75, 75, 255, 75, 75, 75, 255, 75, 75, 75, 255, 75, 75, 75, 255, 75, 75, 75, 255, 75, 75, 75, 255, 75, 75, 75, 255, 75, 75, 75, 255, 75, 75, 75, 255, 75, 75, 75, 255, 75, 75, 75, 255, 75, 75, 75, 255, 75, 75, 75, 255, 75, 75, 75, 255, 75, 75, 75, 255, 75, 75, 75, 255, 75, 75, 75, 255, 75, 75, 75, 255, 75, 75, 75, 255, 75, 75, 75, 255, 75, 75, 75, 255, 75, 75, 75, 255, 75, 75, 75, 255, 75, 75, 75, 255, 75, 75, 75, 255, 75, 75, 75, 255, 75, 75, 75, 255, 75, 75, 75, 255, 75, 75, 75, 255, 75, 75, 75, 255, 75, 75, 75, 255, 75, 75, 75, 255, 75, 75, 75, 255, 75, 75, 75, 255, 75, 75, 75, 255, 75, 75, 75, 255, 75, 75, 75, 255, 75, 75, 75, 255, 75, 75, 75, 255, 75, 75, 75, 255, 75, 75, 75, 255, 75, 75, 75, 255, 75, 75, 75, 255, 75, 75, 75, 255, 75, 75, 75, 255, 75, 75, 75, 255, 75, 75, 75, 255, 75, 75, 75, 255, 75, 75, 75, 255, 75, 75, 75, 255, 75, 75, 75, 255, 75, 75, 75, 255, 75, 75, 75, 255, 75, 75, 75, 255, 75, 75, 75, 255, 75, 75, 75, 255, 75, 75, 75, 255, 75, 75, 75, 255, 75, 75, 75, 255, 75, 75, 75, 255, 75, 75, 75, 255, 75, 75, 75, 255, 75, 75, 75, 255, 75, 75, 75, 255, 75, 75, 75, 255, 75, 75, 75, 255, 75, 75, 75, 255, 75, 75, 75, 255, 75, 75, 75, 255, 75, 75, 75, 255, 75, 75, 75, 255, 75, 75, 75, 255, 75, 75, 75, 255, 75, 75, 75, 255, 75, 75, 75, 255, 75, 75, 75, 255, 75, 75, 75, 255, 75, 75, 75, 255, 75, 75, 75, 255, 75, 75, 75, 255, 75, 75, 75, 255, 75, 75, 75, 255, 75, 75, 75, 255, 75, 75, 75, 255, 75, 75, 75, 255, 75, 75, 75, 255, 75, 75, 75, 255, 75, 75, 75, 255, 75, 75, 75, 255, 75, 75, 75, 255, 75, 75, 75, 255, 75, 75, 75, 255, 75, 75, 75, 255, 75, 75, 75, 255, 75, 75, 75, 255, 75, 75, 75, 255, 75, 75, 75, 255, 75, 75, 75, 255, 75, 75, 75, 255, 75, 75, 75, 255, 75, 75, 75, 255, 75, 75, 75, 255, 75, 75, 75, 255, 75, 75, 75, 255, 75, 75, 75, 255, 75, 75, 75, 255, 75, 75, 75, 255, 75, 75, 75, 255, 75, 75, 75, 255, 75, 75, 75, 255, 75, 75, 75, 255, 75, 75, 75, 255, 75, 75, 75, 255, 75, 75, 75, 255, 75, 75, 75, 255, 75, 75, 75, 255, 75, 75, 75, 255, 75, 75, 75, 255, 111, 12, 12, 255, 157, 134, 46, 255, 75, 75, 75, 255, 75, 75, 75, 255, 75, 75, 75, 255, 75, 75, 75, 255, 75, 75, 75, 255, 75, 75, 75, 255, 26, 26, 26, 255, 34, 34, 34, 255, 28, 28, 28, 255, 50, 50, 50, 255, 23, 23, 23, 255, 179, 179, 179, 255, 168, 168, 168, 255, 75, 75, 75, 255, 83, 69, 30, 255, 31, 28, 27, 255, 26, 23, 22, 255, 75, 75, 75, 255, 75, 75, 75, 255, 75, 75, 75, 255, 75, 75, 75, 255, 75, 75, 75, 255, 160, 98, 63, 255, 149, 73, 32, 255, 119, 60, 26, 255, 102, 55, 22, 255, 89, 46, 18, 255, 53, 28, 11, 255, 75, 75, 75, 255, 75, 75, 75, 255, 102, 55, 22, 255, 75, 75, 75, 255, 75, 75, 75, 255, 75, 75, 75, 255, 75, 75, 75, 255, 75, 75, 75, 255, 75, 75, 75, 255, 0, 0, 0, 0 ),
"format": "RGBA8",
"height": 1,
"mipmaps": false,
"width": 256
}

[sub_resource type="ImageTexture" id=2]
flags = 19
flags = 19
image = SubResource( 3 )
size = Vector2( 256, 1 )

[resource]
resource_name = "palette.004"
params_cull_mode = 2
albedo_texture = SubResource( 2 )
